<?xml version="1.0" encoding="UTF-8" standalone="no"?>
<svg width="20px" height="20px" viewBox="0 0 20 20" version="1.1" xmlns="http://www.w3.org/2000/svg" xmlns:xlink="http://www.w3.org/1999/xlink" xmlns:sketch="http://www.bohemiancoding.com/sketch/ns">
    <!-- Generator: Sketch 3.1.1 (8761) - http://www.bohemiancoding.com/sketch -->
    <title>Oval 89</title>
    <desc>Created with Sketch.</desc>
    <defs></defs>
    <g id="Page-1" stroke="none" stroke-width="1" fill="none" fill-rule="evenodd" sketch:type="MSPage">
        <g id="Impact-Page" sketch:type="MSArtboardGroup" transform="translate(-680.000000, -562.000000)" fill="#12C0DB">
            <g id="Group" sketch:type="MSLayerGroup" transform="translate(680.000000, 514.000000)">
                <circle id="Oval-89" sketch:type="MSShapeGroup" cx="10" cy="58" r="10"></circle>
            </g>
        </g>
    </g>
</svg>