<?xml version="1.0" encoding="utf-8"?>
<!-- Generator: Adobe Illustrator 15.0.2, SVG Export Plug-In . SVG Version: 6.00 Build 0)  -->
<!DOCTYPE svg PUBLIC "-//W3C//DTD SVG 1.1//EN" "http://www.w3.org/Graphics/SVG/1.1/DTD/svg11.dtd">
<svg version="1.1" id="Ebene_1" xmlns="http://www.w3.org/2000/svg" xmlns:xlink="http://www.w3.org/1999/xlink" x="0px" y="0px"
	 width="21px" height="21px" viewBox="10 10 21 21" enable-background="new 10 10 21 21" xml:space="preserve">
<circle fill="#999999" cx="20.5" cy="20.5" r="10.5"/>
<path fill="#FFFFFF" d="M16.725,22.757c0-0.443,0.098-0.788,0.295-1.034c0.162-0.218,0.421-0.375,0.78-0.475
	c-0.112-0.281-0.168-0.488-0.168-0.622c0-0.232,0.123-0.478,0.369-0.738c0.26-0.246,0.502-0.37,0.728-0.37
	c0.119,0,0.26,0.032,0.421,0.095c-0.337-0.963-0.58-1.694-0.728-2.193c-0.168-0.569-0.253-0.973-0.253-1.212
	c0-0.338,0.085-0.601,0.253-0.791c0.176-0.196,0.411-0.295,0.707-0.295c0.506,0,1.114,1.037,1.824,3.11l0.18,0.517
	c0.043-0.106,0.084-0.222,0.127-0.348c0.703-2.053,1.336-3.079,1.898-3.079c0.281,0,0.502,0.095,0.663,0.285
	c0.169,0.19,0.254,0.436,0.254,0.738c0,0.197-0.085,0.594-0.254,1.191c-0.147,0.514-0.379,1.217-0.695,2.109
	c0.401,0.099,0.689,0.288,0.864,0.57c0.189,0.302,0.285,0.77,0.285,1.402c0,1.251-0.372,2.273-1.117,3.068
	c-0.76,0.795-1.723,1.192-2.89,1.192c-0.464,0-0.91-0.085-1.339-0.253c-0.415-0.148-0.791-0.379-1.128-0.696
	c-0.359-0.337-0.625-0.685-0.801-1.044C16.816,23.506,16.725,23.129,16.725,22.757z M17.41,22.703c0,0.177,0.049,0.384,0.148,0.623
	c0.091,0.225,0.229,0.461,0.411,0.707c0.288,0.373,0.629,0.656,1.023,0.854c0.4,0.197,0.854,0.295,1.36,0.295
	c0.907,0,1.67-0.34,2.288-1.022c0.611-0.675,0.918-1.528,0.918-2.563c0-0.322-0.021-0.571-0.063-0.748
	c-0.035-0.155-0.103-0.274-0.201-0.358c-0.189-0.162-0.562-0.302-1.117-0.422c-0.556-0.126-1.146-0.19-1.772-0.19
	c-0.155,0-0.253,0.021-0.295,0.063c-0.049,0.021-0.074,0.091-0.074,0.211c0,0.288,0.162,0.492,0.485,0.612
	c0.352,0.147,0.931,0.222,1.74,0.222h0.295c0.113,0,0.194,0.039,0.243,0.116c0.057,0.057,0.095,0.165,0.116,0.326
	c-0.119,0.12-0.313,0.229-0.58,0.328c-0.253,0.092-0.439,0.183-0.56,0.273c-0.281,0.205-0.506,0.447-0.674,0.729
	c-0.162,0.273-0.243,0.534-0.243,0.779c0,0.148,0.035,0.327,0.106,0.538c0.077,0.232,0.116,0.384,0.116,0.454v0.062l-0.043,0.158
	c-0.309-0.021-0.533-0.164-0.674-0.432c-0.119-0.225-0.187-0.514-0.2-0.864c-0.021,0.007-0.064,0.011-0.126,0.011H19.92
	c0.007,0.034,0.011,0.076,0.011,0.127c0,0.211-0.081,0.39-0.243,0.537c-0.162,0.147-0.352,0.222-0.569,0.222
	c-0.33,0-0.664-0.158-1.001-0.475c-0.337-0.323-0.506-0.64-0.506-0.949c0-0.056,0.011-0.112,0.032-0.169
	c0.007-0.049,0.063-0.126,0.168-0.231c0.175,0.218,0.295,0.368,0.358,0.454c0.295,0.414,0.562,0.621,0.801,0.621
	c0.063,0,0.123-0.021,0.179-0.063c0.042-0.042,0.063-0.077,0.063-0.104c0-0.057-0.042-0.158-0.126-0.307
	c-0.056-0.105-0.187-0.291-0.39-0.559c-0.197-0.253-0.355-0.43-0.475-0.527c-0.105-0.099-0.183-0.147-0.232-0.147
	c-0.134,0-0.264,0.077-0.39,0.231C17.474,22.279,17.41,22.472,17.41,22.703z M18.359,20.69c0,0.091,0.057,0.25,0.169,0.474
	c0.099,0.19,0.257,0.429,0.475,0.717c0.218,0.281,0.415,0.5,0.59,0.654c0.169,0.141,0.296,0.211,0.38,0.211
	c0.049,0,0.098-0.025,0.147-0.074c0.05-0.057,0.075-0.113,0.075-0.169c0-0.085-0.063-0.288-0.19-0.611
	c-0.148-0.358-0.31-0.683-0.485-0.97c-0.154-0.247-0.292-0.419-0.411-0.518c-0.113-0.105-0.222-0.158-0.327-0.158
	c-0.077,0-0.165,0.053-0.264,0.158C18.412,20.511,18.359,20.605,18.359,20.69z M18.834,16.135c0,0.238,0.084,0.615,0.253,1.128
	c0.155,0.499,0.387,1.167,0.696,2.003c0.07-0.042,0.169-0.063,0.295-0.063c0.007,0,0.03,0.001,0.068,0.005
	c0.039,0.004,0.076,0.005,0.111,0.005c0.028,0,0.12,0.007,0.274,0.021l-0.727-2.109c-0.197-0.562-0.352-0.928-0.464-1.097
	c-0.091-0.147-0.183-0.221-0.274-0.221c-0.063,0-0.116,0.028-0.158,0.084C18.858,15.955,18.834,16.036,18.834,16.135z
	 M20.584,21.512c0.063,0.162,0.13,0.338,0.201,0.528c0.14-0.161,0.281-0.296,0.422-0.4c-0.035-0.008-0.089-0.017-0.158-0.027
	c-0.072-0.011-0.124-0.02-0.159-0.026C20.75,21.558,20.648,21.533,20.584,21.512z M21.691,19.361l0.707,0.126
	c0.316-0.872,0.559-1.571,0.727-2.099c0.178-0.569,0.264-0.907,0.264-1.012c0-0.112-0.023-0.2-0.073-0.263
	c-0.028-0.05-0.081-0.074-0.158-0.074c-0.099,0-0.208,0.095-0.327,0.285c-0.134,0.204-0.285,0.559-0.453,1.064L21.691,19.361z"/>
</svg>
