<?xml version="1.0" encoding="utf-8"?>
<!-- Generator: Adobe Illustrator 15.0.2, SVG Export Plug-In . SVG Version: 6.00 Build 0)  -->
<!DOCTYPE svg PUBLIC "-//W3C//DTD SVG 1.1//EN" "http://www.w3.org/Graphics/SVG/1.1/DTD/svg11.dtd">
<svg version="1.1" id="Ebene_1" xmlns="http://www.w3.org/2000/svg" xmlns:xlink="http://www.w3.org/1999/xlink" x="0px" y="0px"
	 width="41px" height="41px" viewBox="0 0 41 41" enable-background="new 0 0 41 41" xml:space="preserve">
<circle fill="#8CC63F" cx="20.5" cy="20.5" r="20.5"/>
<g>
	<path fill="#FFFFFF" d="M10.433,13.117c-1.342,0-0.671,0.456,0,1.007l9.396,7.718l10.738-7.718c0.671-0.551,1.343-1.007,0-1.007
		H19.829H10.433z"/>
	<path fill="#FFFFFF" d="M9.09,15.131V26.54c0,0.671,0.68,1.343,1.217,1.343h20.387c0.537,0,1.217-0.672,1.217-1.343V15.131
		l-12.081,8.724L9.09,15.131z"/>
</g>
</svg>
