<?xml version="1.0" encoding="utf-8"?>
<!-- Generator: Adobe Illustrator 15.0.2, SVG Export Plug-In . SVG Version: 6.00 Build 0)  -->
<!DOCTYPE svg PUBLIC "-//W3C//DTD SVG 1.1//EN" "http://www.w3.org/Graphics/SVG/1.1/DTD/svg11.dtd">
<svg version="1.1" id="Ebene_1" xmlns="http://www.w3.org/2000/svg" xmlns:xlink="http://www.w3.org/1999/xlink" x="0px" y="0px"
	 width="21px" height="21px" viewBox="10 10 21 21" enable-background="new 10 10 21 21" xml:space="preserve">
<g>
	<path fill="#547BBC" d="M20.5,31C26.299,31,31,26.299,31,20.5C31,14.701,26.299,10,20.5,10C14.702,10,10,14.701,10,20.5
		C10,26.299,14.702,31,20.5,31"/>
	<path fill="#FFFFFF" d="M17.967,18.723h1.086v-1.056c0-0.465,0.012-1.184,0.349-1.628c0.355-0.469,0.845-0.79,1.686-0.79
		c1.369,0,1.946,0.194,1.946,0.194l-0.272,1.608c0,0-0.451-0.131-0.873-0.131c-0.424,0-0.801,0.151-0.801,0.573v1.227h1.73
		l-0.12,1.569h-1.61v5.457h-2.036v-5.456h-1.086L17.967,18.723L17.967,18.723z"/>
</g>
</svg>
