<?xml version="1.0" encoding="utf-8"?>
<!-- Generator: Adobe Illustrator 15.0.2, SVG Export Plug-In . SVG Version: 6.00 Build 0)  -->
<!DOCTYPE svg PUBLIC "-//W3C//DTD SVG 1.1//EN" "http://www.w3.org/Graphics/SVG/1.1/DTD/svg11.dtd">
<svg version="1.1" id="Ebene_1" xmlns="http://www.w3.org/2000/svg" xmlns:xlink="http://www.w3.org/1999/xlink" x="0px" y="0px"
	 width="21px" height="21px" viewBox="0 0.009 21 21" enable-background="new 0 0.009 21 21" xml:space="preserve">
<g>
	<path fill="#78CBEF" d="M10.5,21.009c5.799,0,10.5-4.7,10.5-10.5c0-5.798-4.701-10.5-10.5-10.5C4.702,0.009,0,4.71,0,10.509
		C0,16.309,4.702,21.009,10.5,21.009"/>
	<path fill="#FFFFFF" d="M15.768,7.757c-0.387,0.172-0.803,0.289-1.241,0.34c0.447-0.268,0.789-0.689,0.95-1.193
		c-0.418,0.248-0.879,0.426-1.372,0.523c-0.392-0.419-0.954-0.682-1.575-0.682c-1.19,0-2.156,0.967-2.156,2.158
		c0,0.169,0.018,0.334,0.054,0.491c-1.793-0.09-3.382-0.948-4.448-2.255c-0.186,0.32-0.292,0.69-0.292,1.086
		c0,0.747,0.381,1.408,0.96,1.796C6.295,10.01,5.961,9.912,5.67,9.751v0.026c0,1.046,0.744,1.918,1.733,2.115
		c-0.182,0.051-0.372,0.075-0.569,0.075c-0.139,0-0.274-0.012-0.406-0.038c0.275,0.857,1.071,1.482,2.016,1.499
		c-0.738,0.579-1.669,0.924-2.68,0.924c-0.173,0-0.347-0.01-0.514-0.03c0.954,0.612,2.088,0.97,3.308,0.97
		c3.971,0,6.14-3.287,6.14-6.14c0-0.094-0.002-0.187-0.007-0.278C15.113,8.571,15.48,8.19,15.768,7.757"/>
</g>
</svg>
