<?xml version="1.0" encoding="utf-8"?>
<!-- Generator: Adobe Illustrator 15.0.2, SVG Export Plug-In . SVG Version: 6.00 Build 0)  -->
<!DOCTYPE svg PUBLIC "-//W3C//DTD SVG 1.1//EN" "http://www.w3.org/Graphics/SVG/1.1/DTD/svg11.dtd">
<svg version="1.1" id="Ebene_1" xmlns:sketch="http://www.bohemiancoding.com/sketch/ns"
	 xmlns="http://www.w3.org/2000/svg" xmlns:xlink="http://www.w3.org/1999/xlink" x="0px" y="0px" width="82px" height="80px"
	 viewBox="0 0 82 80" enable-background="new 0 0 82 80" xml:space="preserve">
<title>Imported Layers 3 + Oval 104</title>
<desc>Created with Sketch.</desc>
<g id="Page-1" sketch:type="MSPage">
	<g id="Features-Page" transform="translate(-491.000000, -300.000000)" sketch:type="MSArtboardGroup">
		<g id="Imported-Layers-3-_x2B_-Oval-104" transform="translate(491.000000, 300.000000)" sketch:type="MSLayerGroup">
			<g id="Imported-Layers-3" transform="translate(28.000000, 12.000000)">
				<g id="Clip-2">
				</g>
				<defs>
					<filter id="Adobe_OpacityMaskFilter" filterUnits="userSpaceOnUse" x="0" y="0.044" width="25.967" height="57.289">
						<feColorMatrix  type="matrix" values="1 0 0 0 0  0 1 0 0 0  0 0 1 0 0  0 0 0 1 0"/>
					</filter>
				</defs>
				<mask maskUnits="userSpaceOnUse" x="0" y="0.044" width="25.967" height="57.289" id="mask-2">
					<g filter="url(#Adobe_OpacityMaskFilter)">
						<path id="path-1" fill="#FFFFFF" d="M0,0.044h25.967v57.29H0V0.044z"/>
					</g>
				</mask>
				<path id="Fill-1" sketch:type="MSShapeGroup" mask="url(#mask-2)" fill="#FFFFFF" d="M22.36,41.647
					c0,0.61-0.462,1.001-1.007,1.001h-3.848c-0.544,0-1.036-0.391-1.036-1.001v-0.814c0-0.529,0.492-0.992,1.036-0.992h3.848
					c0.545,0,1.007,0.463,1.007,0.992V41.647z M22.36,45.107c0,0.529-0.462,1.052-1.007,1.052h-3.848
					c-0.544,0-1.036-0.522-1.036-1.052v-0.813c0-0.571,0.492-1.06,1.036-1.06h3.848c0.545,0,1.007,0.488,1.007,1.06V45.107z
					 M22.36,48.609c0,0.57-0.462,1.061-1.007,1.061h-3.848c-0.544,0-1.036-0.49-1.036-1.061v-0.814c0-0.611,0.492-1.051,1.036-1.051
					h3.848c0.545,0,1.007,0.439,1.007,1.051V48.609z M15.869,41.647c0,0.61-0.412,1.001-0.957,1.001h-3.89
					c-0.585,0-1.044-0.391-1.044-1.001v-0.814c0-0.529,0.458-0.992,1.044-0.992h3.89c0.545,0,0.957,0.463,0.957,0.992V41.647z
					 M15.869,45.107c0,0.529-0.412,1.052-0.957,1.052h-3.89c-0.585,0-1.044-0.522-1.044-1.052v-0.813c0-0.571,0.458-1.06,1.044-1.06
					h3.89c0.545,0,0.957,0.488,0.957,1.06V45.107z M15.869,48.609c0,0.57-0.412,1.061-0.957,1.061h-3.89
					c-0.585,0-1.044-0.49-1.044-1.061v-0.814c0-0.611,0.458-1.051,1.044-1.051h3.89c0.545,0,0.957,0.439,0.957,1.051V48.609z
					 M15.869,51.988c0,0.529-0.412,1.074-0.957,1.074h-3.89c-0.585,0-1.044-0.545-1.044-1.074v-0.814
					c0-0.57,0.458-1.037,1.044-1.037h3.89c0.545,0,0.957,0.467,0.957,1.037V51.988z M9.377,41.647c0,0.61-0.362,1.001-0.905,1.001
					H4.581c-0.585,0-1.094-0.391-1.094-1.001v-0.814c0-0.529,0.509-0.992,1.094-0.992h3.891c0.543,0,0.905,0.463,0.905,0.992V41.647
					z M9.377,45.107c0,0.529-0.362,1.052-0.905,1.052H4.581c-0.585,0-1.094-0.522-1.094-1.052v-0.813c0-0.571,0.509-1.06,1.094-1.06
					h3.891c0.543,0,0.905,0.488,0.905,1.06V45.107z M9.377,48.609c0,0.57-0.362,1.061-0.905,1.061H4.581
					c-0.585,0-1.094-0.49-1.094-1.061v-0.814c0-0.611,0.509-1.051,1.094-1.051h3.891c0.543,0,0.905,0.439,0.905,1.051V48.609z
					 M3.486,32.353c0-0.776,0.646-1.404,1.442-1.404h15.868c0.797,0,1.443,0.628,1.443,1.404v3.394c0,0.775-0.646,1.403-1.443,1.403
					H4.929c-0.796,0-1.442-0.628-1.442-1.403V32.353z M3.606,8.6H22.24v19.774H3.606V8.6z M10.66,4.739h4.516
					c0.545,0,0.545,0.819-0.1,0.702h-4.318C10.164,5.441,10.212,4.739,10.66,4.739L10.66,4.739z M20.223,0.24
					c-5.21-0.242-9.465-0.242-13.04-0.096C3.114,0.24,0,2.076,0,5.603v41.89c0,6.039,2.327,8.743,6.992,9.468
					c1.291,0.241,2.627,0.241,3.868,0.338c2.879,0.097,5.642,0,8.472-0.338c4.863-0.87,6.635-3.768,6.635-8.31V5.94
					C25.967,2.462,23.699,0.433,20.223,0.24L20.223,0.24z"/>
			</g>
			<g id="Oval-104" sketch:type="MSShapeGroup">
				<path fill="#FFFFFF" d="M41,4c20.402,0,37,16.149,37,36S61.402,76,41,76C20.598,76,4,59.851,4,40S20.598,4,41,4 M41,0
					C18.356,0,0,17.909,0,40c0,22.092,18.356,40,41,40s41-17.908,41-40C82,17.909,63.644,0,41,0L41,0z"/>
			</g>
		</g>
	</g>
</g>
</svg>
