<?xml version="1.0" encoding="utf-8"?>
<!-- Generator: Adobe Illustrator 15.0.2, SVG Export Plug-In . SVG Version: 6.00 Build 0)  -->
<!DOCTYPE svg PUBLIC "-//W3C//DTD SVG 1.1//EN" "http://www.w3.org/Graphics/SVG/1.1/DTD/svg11.dtd">
<svg version="1.1" id="Ebene_1" xmlns:sketch="http://www.bohemiancoding.com/sketch/ns"
	 xmlns="http://www.w3.org/2000/svg" xmlns:xlink="http://www.w3.org/1999/xlink" x="0px" y="0px" width="80px" height="80px"
	 viewBox="0 0 80 80" enable-background="new 0 0 80 80" xml:space="preserve">
<title>Imported Layers 2 + Oval 103 + Line</title>
<desc>Created with Sketch.</desc>
<g id="Imported-Layers-2-_x2B_-Oval-103-_x2B_-Line" transform="translate(190.000000, 300.000000)" sketch:type="MSLayerGroup">
	<g id="Imported-Layers-2" transform="translate(15.000000, 23.000000)">
		<g id="Group-3">
			<g id="Clip-2">
			</g>
			<defs>
				<filter id="Adobe_OpacityMaskFilter" filterUnits="userSpaceOnUse" x="-174.119" y="-278.058" width="17.574" height="12.765">
					<feColorMatrix  type="matrix" values="1 0 0 0 0  0 1 0 0 0  0 0 1 0 0  0 0 0 1 0"/>
				</filter>
			</defs>
			<mask maskUnits="userSpaceOnUse" x="-174.119" y="-278.058" width="17.574" height="12.765" id="mask-2">
				<g filter="url(#Adobe_OpacityMaskFilter)">
					<path id="path-1" fill="#FFFFFF" d="M-190-299.961h49.333v34.667H-190"/>
				</g>
			</mask>
			<path id="Fill-1" sketch:type="MSShapeGroup" mask="url(#mask-2)" fill="#FFFFFF" d="M-173.138-275.734
				c-0.119,0.078-0.229,0.168-0.329,0.267c-0.362,0.354-0.593,0.827-0.642,1.338c-0.063,0.651,0.171,1.297,0.642,1.76l6.557,6.437
				c0.872,0.854,2.285,0.854,3.156,0l6.555-6.437c0.473-0.462,0.707-1.106,0.645-1.758c-0.063-0.649-0.42-1.24-0.973-1.606
				C-162.195-278.832-168.469-278.832-173.138-275.734"/>
		</g>
		<path id="Fill-4" sketch:type="MSShapeGroup" fill="#FFFFFF" d="M-181.273-283.43c-0.054,0.045-0.107,0.093-0.159,0.143
			c-0.389,0.383-0.622,0.896-0.65,1.443c-0.03,0.617,0.207,1.219,0.65,1.654l0.795,0.777c0.808,0.795,2.098,0.859,2.987,0.151
			c7.137-5.705,17.498-5.705,24.634,0c0.89,0.709,2.179,0.645,2.986-0.151l0.795-0.775c0.444-0.438,0.68-1.039,0.649-1.658
			c-0.028-0.615-0.326-1.191-0.812-1.584C-158.63-290.887-172.035-290.887-181.273-283.43"/>
		<g id="Group-8">
			<g id="Clip-7">
			</g>
			<defs>
				
					<filter id="Adobe_OpacityMaskFilter_1_" filterUnits="userSpaceOnUse" x="-189.999" y="-299.961" width="49.333" height="13.42">
					<feColorMatrix  type="matrix" values="1 0 0 0 0  0 1 0 0 0  0 0 1 0 0  0 0 0 1 0"/>
				</filter>
			</defs>
			<mask maskUnits="userSpaceOnUse" x="-189.999" y="-299.961" width="49.333" height="13.42" id="mask-4">
				<g filter="url(#Adobe_OpacityMaskFilter_1_)">
					<path id="path-3" fill="#FFFFFF" d="M-190-299.961h49.333v34.667H-190"/>
				</g>
			</mask>
			<path id="Fill-6" sketch:type="MSShapeGroup" mask="url(#mask-4)" fill="#FFFFFF" d="M-189.239-291.153
				c-0.038,0.031-0.071,0.063-0.107,0.097c-0.398,0.392-0.633,0.92-0.652,1.479c-0.02,0.604,0.216,1.191,0.655,1.619l0.788,0.776
				c0.831,0.815,2.163,0.859,3.047,0.101c11.503-9.868,28.849-9.868,40.351,0c0.886,0.758,2.218,0.714,3.048-0.101l0.791-0.776
				c0.436-0.428,0.674-1.015,0.651-1.619c-0.021-0.607-0.294-1.177-0.76-1.576C-155.057-302.897-175.61-302.897-189.239-291.153"/>
		</g>
	</g>
	<g id="Oval-103" sketch:type="MSShapeGroup">
		<path fill="#FFFFFF" d="M-150-296c19.852,0,36,16.149,36,36c0,19.852-16.148,36-36,36c-19.851,0-36-16.148-36-36
			C-186-279.851-169.851-296-150-296 M-150-300c-22.091,0-40,17.909-40,40c0,22.092,17.909,40,40,40c22.092,0,40-17.908,40-40
			C-110-282.091-127.908-300-150-300L-150-300z"/>
	</g>
	<path id="Line" sketch:type="MSShapeGroup" fill="none" stroke="#FFFFFF" stroke-width="5" stroke-linecap="square" d="
		M-177.5-234.5l50.834-50.833"/>
</g>
</svg>
