<?xml version="1.0" encoding="UTF-8" standalone="no"?>
<svg width="260px" height="261px" viewBox="0 0 260 261" version="1.1" xmlns="http://www.w3.org/2000/svg" xmlns:xlink="http://www.w3.org/1999/xlink" xmlns:sketch="http://www.bohemiancoding.com/sketch/ns">
    <!-- Generator: Sketch 3.1.1 (8761) - http://www.bohemiancoding.com/sketch -->
    <title>Group</title>
    <desc>Created with Sketch.</desc>
    <defs>
        <path id="path-1" d="M0,-0.0367338599 L260.000848,-0.0367338599 L260.000848,259.962701 L0,259.962701"></path>
        <path id="path-3" d="M0,-0.0367338599 L260.000848,-0.0367338599 L260.000848,259.962701 L0,259.962701 L0,-0.0367338599 Z"></path>
    </defs>
    <g id="Page-1" stroke="none" stroke-width="1" fill="none" fill-rule="evenodd" sketch:type="MSPage">
        <g id="Impact-Page" sketch:type="MSArtboardGroup" transform="translate(-100.000000, -299.000000)">
            <g id="Group" sketch:type="MSLayerGroup" transform="translate(100.000000, 300.000000)">
                <g id="Imported-Layers">
                    <g id="Group-3">
                        <mask id="mask-2" sketch:name="Clip 2" fill="white">
                            <use xlink:href="#path-1"></use>
                        </mask>
                        <g id="Clip-2"></g>
                        <path d="M240.504387,61.5179126 C202.702214,0.488842905 122.58523,-18.3414988 61.5558287,19.4632944 C0.52642733,57.2652619 -18.301191,137.38181 19.5009819,198.41088 C57.3031549,259.437124 137.422964,278.26464 198.44954,240.465498 C228.546038,221.818826 248.376778,192.886673 256.218087,161.024288 C264.271323,128.283116 259.659786,92.4478227 240.504387,61.5179126" id="Fill-1" fill="#E8CD5C" sketch:type="MSShapeGroup" mask="url(#mask-2)"></path>
                    </g>
                    <g id="Group-6">
                        <mask id="mask-4" sketch:name="Clip 5" fill="white">
                            <use xlink:href="#path-3"></use>
                        </mask>
                        <g id="Clip-5"></g>
                        <path d="M130.136622,-0.0316476332 C106.694641,-0.0825099008 82.9503101,6.21028287 61.5541333,19.4627293 C0.524731912,57.2646968 -18.3000608,137.381245 19.5021122,198.410315 C57.3042852,259.439385 137.418443,278.266901 198.45067,240.464933 L130.000989,129.961006 L130.136622,-0.0316476332 Z" id="Fill-4" fill="#134758" sketch:type="MSShapeGroup" mask="url(#mask-4)"></path>
                    </g>
                    <path d="M256.216674,161.025136 C248.378191,192.884695 228.544625,221.819674 198.450953,240.46352 L130.001272,129.962418 L256.216674,161.025136 Z" id="Fill-7" fill="#12C0DB" sketch:type="MSShapeGroup"></path>
                    <path d="M193.259583,90.7818009 C171.620396,55.8450744 125.753684,45.067925 90.8195934,66.7041685 C55.8855028,88.3432377 45.1054691,134.212526 66.7474816,169.146427 C88.3866684,204.083153 134.250555,214.860303 169.184645,193.215582 C204.121561,171.579339 214.898769,125.718527 193.259583,90.7818009" id="Fill-9" fill="#FFFFFF" sketch:type="MSShapeGroup"></path>
                </g>
                <text id="-mobile-penetration-" sketch:type="MSTextLayer" font-family="Quicksand" font-size="16" font-weight="bold" sketch:alignment="middle" line-spacing="17" fill="#144758">
                    <tspan x="99.528" y="118.304"> mobile </tspan>
                    <tspan x="67.52" y="135.304">penetration per </tspan>
                    <tspan x="82.688" y="152.304">device type</tspan>
                </text>
                <text id="63%" fill="#FFFFFF" sketch:type="MSTextLayer" font-family="Quicksand" font-size="16" font-weight="bold">
                    <tspan x="9" y="136">63</tspan>
                    <tspan x="29.032" y="136" font-family="Lucida Grande">%</tspan>
                </text>
                <text id="27%" fill="#FFFFFF" sketch:type="MSTextLayer" font-family="Quicksand" font-size="16" font-weight="bold">
                    <tspan x="194" y="73">27</tspan>
                    <tspan x="212.832" y="73" font-family="Lucida Grande">%</tspan>
                </text>
                <text id="10%" fill="#FFFFFF" sketch:type="MSTextLayer" font-family="Quicksand" font-size="16" font-weight="bold">
                    <tspan x="197" y="196">10</tspan>
                    <tspan x="213.72" y="196" font-family="Lucida Grande">%</tspan>
                </text>
            </g>
        </g>
    </g>
</svg>