<?xml version="1.0" encoding="UTF-8" standalone="no"?>
<svg width="102px" height="70px" viewBox="0 0 102 70" version="1.1" xmlns="http://www.w3.org/2000/svg" xmlns:xlink="http://www.w3.org/1999/xlink" xmlns:sketch="http://www.bohemiancoding.com/sketch/ns">
    <!-- Generator: Sketch 3.1.1 (8761) - http://www.bohemiancoding.com/sketch -->
    <title>Imported Layers 2</title>
    <desc>Created with Sketch.</desc>
    <defs>
        <path id="path-1" d="M0,0.092878952 L102,0.092878952 L102,69.092879 L0,69.092879 L0,0.092878952 Z"></path>
    </defs>
    <g id="Page-1" stroke="none" stroke-width="1" fill="none" fill-rule="evenodd" sketch:type="MSPage">
        <g id="About-Page-Mobile" sketch:type="MSArtboardGroup" transform="translate(-30.000000, -186.000000)">
            <g id="Imported-Layers-2" sketch:type="MSLayerGroup" transform="translate(30.000000, 186.000000)">
                <mask id="mask-2" sketch:name="Clip 2" fill="white">
                    <use xlink:href="#path-1"></use>
                </mask>
                <g id="Clip-2"></g>
                <path d="M9.48282667,30.2254161 L51.0024933,5.69631144 L92.5176267,30.2254161 L76.49116,39.6945386 L76.49116,35.2657983 C76.49116,25.8680341 65.29496,18.5158722 51.0024933,18.5158722 C36.7066267,18.5158722 25.51156,25.8680341 25.51156,35.2657983 L25.51156,39.6945386 L9.48282667,30.2254161 Z M30.33616,55.4839604 C30.33616,51.3315916 38.8214267,46.6989707 51.0024933,46.6989707 C63.1790267,46.6989707 71.6654267,51.3315916 71.6654267,55.4839604 C71.6654267,59.6431252 63.1790267,64.2700827 51.0024933,64.2700827 C38.8214267,64.2700827 30.33616,59.6431252 30.33616,55.4839604 L30.33616,55.4839604 Z M30.33616,35.2657983 C30.33616,28.7959864 39.79836,23.3365163 51.0024933,23.3365163 C62.2020933,23.3365163 71.6654267,28.7959864 71.6654267,35.2657983 L71.6654267,47.3468581 C67.1150933,43.9964198 59.71216,41.8794593 51.0024933,41.8794593 C42.29396,41.8794593 34.88876,43.9964198 30.33616,47.3468581 L30.33616,35.2657983 Z M2.33036,54.5585689 L2.33036,61.6083079 C2.33036,62.9414607 3.41042667,64.01863 4.74096,64.01863 C6.07376,64.01863 7.15382667,62.9414607 7.15382667,61.6083079 L7.15382667,54.5585689 C7.15382667,53.6796169 6.65516,52.9399833 5.94909333,52.522028 L5.94909333,33.7355609 L25.51156,45.2967251 L25.51156,54.4498326 C25.51156,54.5642322 25.56256,54.6661726 25.57276,54.7839703 C25.55236,55.0161676 25.51156,55.2472323 25.51156,55.4839604 C25.51156,63.2427509 36.4720267,69.0929922 51.0036267,69.0929922 C65.5352267,69.0929922 76.4922933,63.2438836 76.4922933,55.4862257 C76.4922933,55.2494977 76.45036,55.0173003 76.4310933,54.7851029 C76.4378933,54.6661726 76.4922933,54.5653649 76.4922933,54.4509652 L76.4922933,45.2978578 L102.000227,30.2254161 L51.0024933,0.092992219 L0.000226666667,30.2254161 L3.53396,32.3117945 L3.53396,52.5231606 C2.82789333,52.9411159 2.33036,53.6807495 2.33036,54.5585689 L2.33036,54.5585689 Z" id="Fill-1" fill="#FFFFFF" sketch:type="MSShapeGroup" mask="url(#mask-2)"></path>
            </g>
        </g>
    </g>
</svg>