<?xml version="1.0" encoding="UTF-8" standalone="no"?>
<svg width="202px" height="459px" viewBox="0 0 202 459" version="1.1" xmlns="http://www.w3.org/2000/svg" xmlns:xlink="http://www.w3.org/1999/xlink" xmlns:sketch="http://www.bohemiancoding.com/sketch/ns">
    <!-- Generator: Sketch 3.1.1 (8761) - http://www.bohemiancoding.com/sketch -->
    <title>Fill 1</title>
    <desc>Created with Sketch.</desc>
    <defs></defs>
    <g id="Page-1" stroke="none" stroke-width="1" fill="none" fill-rule="evenodd" sketch:type="MSPage">
        <g id="Home-Page" sketch:type="MSArtboardGroup" transform="translate(-719.000000, -798.000000)" fill="#BFE5F0">
            <g id="Imported-Layers" sketch:type="MSLayerGroup" transform="translate(719.000000, 798.000000)">
                <path d="M173.944444,333.420879 C173.944444,338.306887 170.350528,341.439328 166.114139,341.439328 L136.177926,341.439328 C131.949954,341.439328 128.12037,338.306887 128.12037,333.420879 L128.12037,326.902142 C128.12037,322.664354 131.949954,318.957695 136.177926,318.957695 L166.114139,318.957695 C170.350528,318.957695 173.944444,322.664354 173.944444,326.902142 L173.944444,333.420879 Z M173.944444,361.12387 C173.944444,365.363532 170.350528,369.541368 166.114139,369.541368 L136.177926,369.541368 C131.949954,369.541368 128.12037,365.357911 128.12037,361.12387 L128.12037,354.609817 C128.12037,350.040426 131.949954,346.123001 136.177926,346.123001 L166.114139,346.123001 C170.350528,346.123001 173.944444,350.040426 173.944444,354.609817 L173.944444,361.12387 Z M173.944444,389.16034 C173.944444,393.720364 170.350528,397.643409 166.114139,397.643409 L136.177926,397.643409 C131.949954,397.643409 128.12037,393.720364 128.12037,389.16034 L128.12037,382.637856 C128.12037,377.748101 131.949954,374.225042 136.177926,374.225042 L166.114139,374.225042 C170.350528,374.225042 173.944444,377.748101 173.944444,382.637856 L173.944444,389.16034 Z M123.444444,333.420879 C123.444444,338.306887 120.239565,341.439328 116.008787,341.439328 L85.7433889,341.439328 C81.1862315,341.439328 77.6203704,338.306887 77.6203704,333.420879 L77.6203704,326.902142 C77.6203704,322.664354 81.1862315,318.957695 85.7433889,318.957695 L116.008787,318.957695 C120.239565,318.957695 123.444444,322.664354 123.444444,326.902142 L123.444444,333.420879 Z M123.444444,361.12387 C123.444444,365.363532 120.239565,369.541368 116.008787,369.541368 L85.7433889,369.541368 C81.1862315,369.541368 77.6203704,365.357911 77.6203704,361.12387 L77.6203704,354.609817 C77.6203704,350.040426 81.1862315,346.123001 85.7433889,346.123001 L116.008787,346.123001 C120.239565,346.123001 123.444444,350.040426 123.444444,354.609817 L123.444444,361.12387 Z M123.444444,389.16034 C123.444444,393.720364 120.239565,397.643409 116.008787,397.643409 L85.7433889,397.643409 C81.1862315,397.643409 77.6203704,393.720364 77.6203704,389.16034 L77.6203704,382.637856 C77.6203704,377.748101 81.1862315,374.225042 85.7433889,374.225042 L116.008787,374.225042 C120.239565,374.225042 123.444444,377.748101 123.444444,382.637856 L123.444444,389.16034 Z M123.444444,416.213238 C123.444444,420.451026 120.239565,424.808715 116.008787,424.808715 L85.7433889,424.808715 C81.1862315,424.808715 77.6203704,420.451026 77.6203704,416.213238 L77.6203704,409.684197 C77.6203704,405.125109 81.1862315,401.390348 85.7433889,401.390348 L116.008787,401.390348 C120.239565,401.390348 123.444444,405.125109 123.444444,409.684197 L123.444444,416.213238 Z M72.9444444,333.420879 C72.9444444,338.306887 70.1257963,341.439328 65.9015648,341.439328 L35.6342963,341.439328 C31.0771389,341.439328 27.1203704,338.306887 27.1203704,333.420879 L27.1203704,326.902142 C27.1203704,322.664354 31.0771389,318.957695 35.6342963,318.957695 L65.9015648,318.957695 C70.1257963,318.957695 72.9444444,322.664354 72.9444444,326.902142 L72.9444444,333.420879 Z M72.9444444,361.12387 C72.9444444,365.363532 70.1257963,369.541368 65.9015648,369.541368 L35.6342963,369.541368 C31.0771389,369.541368 27.1203704,365.357911 27.1203704,361.12387 L27.1203704,354.609817 C27.1203704,350.040426 31.0771389,346.123001 35.6342963,346.123001 L65.9015648,346.123001 C70.1257963,346.123001 72.9444444,350.040426 72.9444444,354.609817 L72.9444444,361.12387 Z M72.9444444,389.16034 C72.9444444,393.720364 70.1257963,397.643409 65.9015648,397.643409 L35.6342963,397.643409 C31.0771389,397.643409 27.1203704,393.720364 27.1203704,389.16034 L27.1203704,382.637856 C27.1203704,377.748101 31.0771389,374.225042 35.6342963,374.225042 L65.9015648,374.225042 C70.1257963,374.225042 72.9444444,377.748101 72.9444444,382.637856 L72.9444444,389.16034 Z M27.1203704,259.006674 C27.1203704,252.797997 32.1451204,247.765858 38.3425926,247.765858 L161.787037,247.765858 C167.984509,247.765858 173.009259,252.797997 173.009259,259.006674 L173.009259,286.171981 C173.009259,292.379721 167.984509,297.412797 161.787037,297.412797 L38.3425926,297.412797 C32.1451204,297.412797 27.1203704,292.379721 27.1203704,286.171981 L27.1203704,259.006674 Z M28.0555556,68.8495316 L173.009259,68.8495316 L173.009259,227.157695 L28.0555556,227.157695 L28.0555556,68.8495316 Z M82.9238056,37.9372867 L118.058713,37.9372867 C122.298843,37.9372867 122.298843,44.4944296 117.278769,43.5576949 L83.6915926,43.5576949 C79.0633611,43.5576949 79.4411759,37.9372867 82.9238056,37.9372867 L82.9238056,37.9372867 Z M157.321528,1.92264796 C116.785926,-0.0135826531 83.6841111,-0.0135826531 55.8801204,1.15358878 C24.2231667,1.92264796 0,16.6218888 0,44.8522622 L0,380.214523 C0,428.562211 18.0986389,450.211087 54.3941111,456.011348 C64.4351944,457.945705 74.8344537,457.945705 84.4865,458.716638 C106.879509,459.48757 128.377546,458.716638 150.382454,456.011348 C188.222852,449.048599 202,425.847554 202,389.491007 L202,47.557552 C202,19.7103031 184.355861,3.46545 157.321528,1.92264796 L157.321528,1.92264796 Z" id="Fill-1" sketch:type="MSShapeGroup"></path>
            </g>
        </g>
    </g>
</svg>