<?xml version="1.0" encoding="UTF-8" standalone="no"?>
<svg width="50px" height="50px" viewBox="0 0 50 50" version="1.1" xmlns="http://www.w3.org/2000/svg" xmlns:xlink="http://www.w3.org/1999/xlink" xmlns:sketch="http://www.bohemiancoding.com/sketch/ns">
    <!-- Generator: Sketch 3.1.1 (8761) - http://www.bohemiancoding.com/sketch -->
    <title>Imported Layers 5 + Oval 109 + Path 457</title>
    <desc>Created with Sketch.</desc>
    <defs>
        <path id="path-1" d="M0,-0.0146350644 L29.3750373,-0.0146350644 L29.3750373,27.4853649 L0,27.4853649"></path>
        <path id="path-3" d="M0,-0.0146350644 L29.3750373,-0.0146350644 L29.3750373,27.4853649 L0,27.4853649"></path>
    </defs>
    <g id="Page-1" stroke="none" stroke-width="1" fill="none" fill-rule="evenodd" sketch:type="MSPage">
        <g id="About-Page-Mobile" sketch:type="MSArtboardGroup" transform="translate(-60.000000, -591.000000)">
            <g id="Imported-Layers-5-+-Oval-109-+-Path-457" sketch:type="MSLayerGroup" transform="translate(60.000000, 591.000000)">
                <g>
                    <g id="Imported-Layers-5" transform="translate(10.625000, 8.750000)">
                        <path d="M12.2930402,22.002106 L16.9158013,22.002106 C17.1831013,20.8619988 17.9219975,20.0028134 18.6407623,19.166473 C19.6484496,17.9942401 20.6896893,16.7827423 20.6896893,14.5528582 C20.6896893,10.342957 16.7092683,9.2306921 14.6044208,9.2306921 C12.4995733,9.2306921 8.51877945,10.342957 8.51877945,14.5528582 C8.51877945,16.7827423 9.56039192,17.994954 10.5677065,19.166473 C11.2868441,20.0020995 12.0257402,20.8619988 12.2930402,22.002106 M17.7680297,23.8325599 L11.4415574,23.8325599 C10.913668,23.8325599 10.4856897,23.4224212 10.4856897,22.916976 C10.4856897,21.9507048 9.87056428,21.2357284 9.09177815,20.3297822 C7.9849251,19.0418965 6.60741685,17.4391785 6.60741685,14.5528582 C6.60741685,9.30529523 11.3901106,7.40023818 14.6047936,7.40023818 C17.8194766,7.40023818 22.6017975,9.30529523 22.6017975,14.5528582 C22.6017975,17.4391785 21.2242893,19.0418965 20.1174362,20.3297822 C19.3382773,21.2357284 18.7235246,21.9507048 18.7235246,22.916976 C18.7235246,23.4224212 18.2959192,23.8325599 17.7680297,23.8325599" id="Fill-1" fill="#FFFFFF" sketch:type="MSShapeGroup"></path>
                        <path d="M21.0874332,7.72870614 C20.9263821,7.72870614 20.7630943,7.68944134 20.6128545,7.60698524 C20.1550521,7.35569048 19.9966107,6.79634545 20.2586914,6.35800742 L22.5182523,2.58573033 C22.7810786,2.1473923 23.3633974,1.9946165 23.8234367,2.24698213 C24.2808664,2.49827689 24.4396806,3.05762192 24.177227,3.49595994 L21.9184118,7.26823704 C21.7409574,7.563437 21.4188553,7.72870614 21.0874332,7.72870614" id="Fill-3" fill="#FFFFFF" sketch:type="MSShapeGroup"></path>
                        <path d="M24.6538188,11.8146377 C24.3291071,11.8146377 24.0129699,11.6561506 23.8336515,11.3698745 C23.5615051,10.9365338 23.7083896,10.3743331 24.1613456,10.1144715 L27.9266591,7.9513376 C28.3796151,7.69147597 28.9664076,7.83140146 29.238554,8.26545606 C29.5099548,8.69879674 29.3638159,9.26099739 28.9104871,9.52085902 L25.1448008,11.6839929 C24.990833,11.7725172 24.8212075,11.8146377 24.6538188,11.8146377" id="Fill-5" fill="#FFFFFF" sketch:type="MSShapeGroup"></path>
                        <g id="Group-9">
                            <mask id="mask-2" sketch:name="Clip 8" fill="white">
                                <use xlink:href="#path-1"></use>
                            </mask>
                            <g id="Clip-8"></g>
                            <path d="M14.7084329,5.84213925 C14.1805434,5.84213925 13.7525652,5.43235745 13.7525652,4.92691229 L13.7525652,0.900484807 C13.7525652,0.395039654 14.1805434,-0.0147421503 14.7084329,-0.0147421503 C15.2366952,-0.0147421503 15.6646734,0.395039654 15.6646734,0.900484807 L15.6646734,4.92691229 C15.6646734,5.43235745 15.2366952,5.84213925 14.7084329,5.84213925" id="Fill-7" fill="#FFFFFF" sketch:type="MSShapeGroup" mask="url(#mask-2)"></path>
                        </g>
                        <path d="M8.38717988,7.72870614 C8.07104267,7.72870614 7.76161592,7.57842902 7.5793151,7.30393232 L5.21947011,3.7465408 C4.93651239,3.31998222 5.06811196,2.75421204 5.51361192,2.48328487 C5.95911188,2.2116438 6.54963234,2.33800509 6.83296286,2.76492063 L9.19280785,6.32231215 C9.47576556,6.74887073 9.34416599,7.31464091 8.89866603,7.58556807 C8.73985182,7.68230228 8.56277024,7.72870614 8.38717988,7.72870614" id="Fill-10" fill="#FFFFFF" sketch:type="MSShapeGroup"></path>
                        <g id="Group-14">
                            <mask id="mask-4" sketch:name="Clip 13" fill="white">
                                <use xlink:href="#path-3"></use>
                            </mask>
                            <g id="Clip-13"></g>
                            <path d="M4.77054035,11.8146377 C4.60501568,11.8146377 4.43725419,11.7732311 4.28440483,11.6868486 L0.468762889,9.52371465 C0.0146884506,9.26599473 -0.135551286,8.70486494 0.133239905,8.26973949 C0.402403899,7.83497099 0.988823515,7.69147597 1.44289795,7.94848198 L5.25853989,10.1116159 C5.71261433,10.3693358 5.86285407,10.9304656 5.59406288,11.365591 C5.41549009,11.6543659 5.09711606,11.8146377 4.77054035,11.8146377" id="Fill-12" fill="#FFFFFF" sketch:type="MSShapeGroup" mask="url(#mask-4)"></path>
                        </g>
                        <path d="M17.8898246,27.4853649 L11.5264448,27.4853649 C10.9985553,27.4853649 10.5705771,27.0755831 10.5705771,26.570138 C10.5705771,26.0646928 10.9985553,25.654911 11.5264448,25.654911 L17.8898246,25.654911 C18.4177141,25.654911 18.8453195,26.0646928 18.8453195,26.570138 C18.8453195,27.0755831 18.4177141,27.4853649 17.8898246,27.4853649" id="Fill-15" fill="#FFFFFF" sketch:type="MSShapeGroup"></path>
                    </g>
                    <circle id="Oval-109" stroke="#FFFFFF" stroke-width="4" sketch:type="MSShapeGroup" cx="25" cy="25" r="25"></circle>
                    <path d="M22.5,38.4375 L28.322601,38.4375" id="Path-457" stroke="#FFFFFF" stroke-width="3" sketch:type="MSShapeGroup"></path>
                </g>
            </g>
        </g>
    </g>
</svg>