<?xml version="1.0" encoding="UTF-8" standalone="no"?>
<svg width="50px" height="50px" viewBox="0 0 50 50" version="1.1" xmlns="http://www.w3.org/2000/svg" xmlns:xlink="http://www.w3.org/1999/xlink" xmlns:sketch="http://www.bohemiancoding.com/sketch/ns">
    <!-- Generator: Sketch 3.1.1 (8761) - http://www.bohemiancoding.com/sketch -->
    <title>Group 2</title>
    <desc>Created with Sketch.</desc>
    <defs></defs>
    <g id="Page-1" stroke="none" stroke-width="1" fill="none" fill-rule="evenodd" sketch:type="MSPage">
        <g id="About-Page-Mobile" sketch:type="MSArtboardGroup" transform="translate(-212.000000, -370.000000)" stroke="#FFFFFF">
            <g id="Group-2" sketch:type="MSLayerGroup" transform="translate(212.000000, 370.000000)">
                <g sketch:type="MSShapeGroup">
                    <circle id="Oval-106" stroke-width="4" cx="25" cy="25" r="25"></circle>
                    <circle id="Oval-107" stroke-width="5" cx="25.3125" cy="25.3125" r="14.6875"></circle>
                    <path d="M24.2297363,19.2883301 L24.2297363,25.090332 L31.652832,25.090332" id="Path-439" stroke-width="3" transform="translate(27.941284, 22.189331) scale(-1, 1) rotate(-90.000000) translate(-27.941284, -22.189331) "></path>
                    <path d="M13.125,25.625 L16.3922119,25.625" id="Path-440" stroke-width="2"></path>
                    <path d="M34.375,25.625 L37.6422119,25.625" id="Path-441" stroke-width="2"></path>
                    <g id="Path-443-+-Path-442" transform="translate(25.312500, 25.625000) rotate(-90.000000) translate(-25.312500, -25.625000) translate(13.125000, 25.000000)" stroke-width="2">
                        <path d="M0,0.625 L3.26721191,0.625" id="Path-443"></path>
                        <path d="M21.25,0.625 L24.5172119,0.625" id="Path-442"></path>
                    </g>
                </g>
            </g>
        </g>
    </g>
</svg>